<?xml version="1.0" encoding="UTF-8" standalone="no"?>
<svg fill="#28ff09" fill-opacity="14.118" height="480" width="640" xmlns="http://www.w3.org/2000/svg">
    <g fill-opacity="1" fill-rule="evenodd">
        <path d="M0 0h640v480H0z" fill="#00cbff"/>
        <path d="M0 160h640v160H0z" fill="#fff"/>
        <path d="M0 185.97h640v108.05H0z" fill="#000"/>
    </g>
</svg>
