<?xml version="1.0" encoding="UTF-8" standalone="no"?>
<svg height="480" version="1" width="640" xmlns="http://www.w3.org/2000/svg">
    <g fill-rule="evenodd" stroke-width="1pt">
        <path d="M0 0h640v480H0z" fill="#ffe800"/>
        <path d="M0 240h640v240H0z" fill="#00148e"/>
        <path d="M0 360h640v120H0z" fill="#da0010"/>
    </g>
</svg>
