<?xml version="1.0" encoding="UTF-8" standalone="no"?>
<svg height="480" version="1" width="640" xmlns="http://www.w3.org/2000/svg">
    <g fill-rule="evenodd" stroke-width="1pt">
        <path d="M0 320h640v160.002H0z" fill="#fc0"/>
        <path d="M0 0h640v160H0z"/>
        <path d="M0 160h640v160H0z" fill="#f00"/>
    </g>
</svg>
