<?xml version="1.0" encoding="UTF-8" standalone="no"?>
<svg height="480" width="640" xmlns="http://www.w3.org/2000/svg">
    <defs>
        <clipPath id="a">
            <path d="M-85.333 0h682.67v512h-682.67z" fill-opacity=".67"/>
        </clipPath>
    </defs>
    <g clip-path="url(#a)" transform="matrix(.94 0 0 .94 80 0)">
        <g stroke-width="1pt">
            <path d="M-256 0H768.02v512.01H-256z" fill="#006"/>
            <path d="M-256 0v57.244l909.535 454.768H768.02V454.77L-141.515 0H-256zM768.02 0v57.243L-141.515 512.01H-256v-57.243L653.535 0H768.02z"
                  fill="#fff"/>
            <path d="M170.675 0v512.01h170.67V0h-170.67zM-256 170.67v170.67H768.02V170.67H-256z" fill="#fff"/>
            <path d="M-256 204.804v102.402H768.02V204.804H-256zM204.81 0v512.01h102.4V0h-102.4zM-256 512.01L85.34 341.34h76.324l-341.34 170.67H-256zM-256 0L85.34 170.67H9.016L-256 38.164V0zm606.356 170.67L691.696 0h76.324L426.68 170.67h-76.324zM768.02 512.01L426.68 341.34h76.324L768.02 473.848v38.162z"
                  fill="#c00"/>
        </g>
    </g>
</svg>
