<?xml version="1.0" encoding="UTF-8" standalone="no"?>
<svg height="480" version="1" width="640" xmlns="http://www.w3.org/2000/svg">
    <defs>
        <clipPath id="a">
            <path d="M0 0h682.67v512H0z" fill-opacity=".67"/>
        </clipPath>
    </defs>
    <g clip-path="url(#a)" transform="matrix(.94 0 0 .94 0 0)">
        <g fill-rule="evenodd" stroke-width="1pt">
            <path d="M0 0h767.975v171.886H0z" fill="#3e9a00"/>
            <path d="M0 171.886h767.975v168.222H0z" fill="#fff"/>
            <path d="M0 340.108h767.975v171.886H0z" fill="#e32118"/>
            <path d="M0 0v511.984l255.994-255.992L0 0z" fill="#5567e4"/>
        </g>
        <path d="M283.46 148.82v442.91c0 35.433 17.716 70.866 53.15 70.866h70.865c17.717 0 35.433 35.433 35.433 35.433s16.938-35.434 35.433-35.434h70.868c35.433 0 53.15-35.433 53.15-70.866V148.82h-318.9z"
              fill="#ccc" fill-rule="evenodd" stroke="#000" stroke-width="3.791"
              transform="matrix(.24 0 0 .2 269.51 179.77)"/>
        <path d="M215.38 731.79c-18.02 0-35.738-17.717-35.738-35.433v-88.583c15.502 15.502 88.583 70.866 70.867 88.583-17.718 17.716-35.738 0-35.434 0s.304 35.433.304 35.433z"
              fill="#ccc" fill-rule="evenodd" stroke="#000" stroke-width="1pt"
              transform="matrix(.24 0 0 .2 267.81 160.36)"/>
        <path d="M319.345 289.56c4.245-3.286 4.245 3.288 8.49 0l-4.245 19.724c-4.118-.618-4.26 0-6.638-3.287 0-3.288 0-13.792 2.393-16.436z"
              fill="#ccc" fill-rule="evenodd"/>
        <path d="M215.38 731.79c-18.02 0-35.738-17.717-35.738-35.433v-88.583c15.502 15.502 88.583 70.866 70.867 88.583-17.718 17.716-35.738 0-35.434 0s.304 35.433.304 35.433z"
              fill="#ccc" fill-rule="evenodd" stroke="#000" stroke-width="1pt"
              transform="matrix(-.24 0 0 .2 481.9 160.36)"/>
        <path d="M429.71 289.56c-4.245-3.286-4.245 3.288-8.49 0l4.245 19.724c4.118-.618 4.26 0 6.638-3.287 0-3.288 0-13.792-2.394-16.436z"
              fill="#ccc" fill-rule="evenodd"/>
        <path d="M513.78 1140.9c0-17.71-35.433-53.14-35.433-70.86s35.433 17.72 106.3 17.72c70.866 0 106.3-88.588 88.582-106.3 17.716 35.434 17.716 70.864 17.716 88.584 0 35.43-35.433 70.86-106.3 70.86H513.78z"
              fill="#ccc" fill-rule="evenodd" stroke="#000" stroke-width="1pt"
              transform="matrix(.24 0 0 .2 268.41 107.46)"/>
        <path d="M513.78 1140.9c0-17.71-35.433-53.14-35.433-70.86s35.433 17.72 106.3 17.72c70.866 0 106.3-88.588 88.582-106.3 17.716 35.434 17.716 70.864 17.716 88.584 0 35.43-35.433 70.86-106.3 70.86H513.78z"
              fill="#ccc" fill-rule="evenodd" stroke="#000" stroke-width="1pt"
              transform="matrix(-.24 0 0 .2 480.65 107.46)"/>
        <path d="M357.548 315.853c0-3.287 8.49-6.574 8.49-9.862v16.436h-8.49v-6.573zM391.505 315.853c0-3.287-8.49-6.574-8.49-9.862v16.436h8.49v-6.573z"
              fill="#ccc" fill-rule="evenodd"/>
        <path d="M371.17 1034.6c0 17.71 141.73 17.71 141.73 0v70.87c0 17.71-141.73 17.71-141.73 0v-70.87z"
              fill="#ccc" fill-rule="evenodd" stroke="#000" stroke-width="1pt"
              transform="matrix(.24 0 0 .2 268.62 123.89)"/>
        <path d="M249.63 696.36c-17.717 17.716-17.717-17.717-35.433 0-17.717 17.716 17.717 106.3 88.583 106.3s106.3-35.433 106.3-17.717c0 17.717-35.433 35.433-35.433 53.15s141.73 17.717 141.73 0-35.433-35.433-35.433-53.15c0-17.716 35.433 17.717 106.3 17.717 70.866 0 106.3-88.583 88.583-106.3-17.716-17.717-17.716 17.716-35.433 0"
              fill="none" stroke="#000" stroke-width="1.25" transform="matrix(.24 0 0 .2 268.02 160.36)"/>
        <path d="M426.836 313.608l-4.368-7.285.762-.308 4.368 7.285-.762.308zM424.102 312.023l.913-.01c.236.874.246 1.598.028 2.172-.217.57-.636.958-1.256 1.164-.642.213-1.245.22-1.81.027-.564-.2-1.106-.577-1.625-1.133-.517-.558-.952-1.196-1.306-1.915-.385-.785-.603-1.508-.654-2.168-.05-.665.07-1.22.357-1.666.288-.45.695-.763 1.22-.937.595-.2 1.19-.173 1.785.075.595.25 1.143.694 1.644 1.336l-.663.49c-.407-.503-.803-.835-1.19-.998-.385-.162-.776-.177-1.174-.045-.458.152-.773.418-.945.797-.17.38-.2.824-.095 1.334.105.508.28 1.01.523 1.506.315.64.663 1.176 1.045 1.607.384.427.79.707 1.217.84.428.132.823.14 1.186.018.44-.146.735-.432.883-.855.148-.424.12-.97-.084-1.64zM418.77 317.044l-2.847-7.777.813-.2 2.847 7.776-.814.2zM413.39 317.903l-.748-7.137-2.108.15-.1-.956 5.07-.36.1.956-2.116.15.748 7.137-.846.06zM405.245 315.74l.802-.086c.037.405.125.74.262 1.002.14.26.356.47.647.63.293.16.62.24.986.24.324 0 .61-.06.858-.183.25-.122.434-.288.554-.5.122-.213.184-.446.184-.697 0-.254-.06-.477-.176-.665-.117-.19-.31-.35-.578-.48-.173-.086-.553-.216-1.143-.394-.59-.18-1.002-.35-1.24-.51-.305-.203-.534-.453-.687-.753-.148-.303-.222-.64-.222-1.014 0-.41.092-.793.276-1.147.184-.36.453-.63.806-.815.353-.184.746-.277 1.178-.277.477 0 .895.1 1.258.294.365.193.645.477.84.854.196.376.3.803.316 1.28l-.815.077c-.045-.513-.193-.9-.448-1.163-.25-.263-.623-.393-1.116-.393-.515 0-.89.12-1.126.36-.234.235-.35.52-.35.857 0 .292.083.532.25.72.162.19.59.383 1.278.582.692.195 1.167.366 1.423.515.375.217.652.494.83.83.177.332.266.716.266 1.152 0 .432-.098.84-.293 1.225-.196.38-.478.677-.845.892-.365.21-.777.316-1.235.316-.582 0-1.07-.108-1.463-.322-.392-.214-.7-.536-.925-.964-.222-.432-.338-.92-.35-1.463zM402.932 310.142l.85.032-.26 4.687c-.046.817-.155 1.46-.328 1.936-.172.474-.458.855-.857 1.143-.396.283-.903.415-1.52.392-.602-.023-1.086-.173-1.454-.448-.367-.277-.62-.665-.755-1.166-.136-.504-.18-1.186-.132-2.046l.26-4.687.848.032-.26 4.68c-.038.706-.016 1.228.068 1.568.086.336.25.6.49.79.244.19.548.29.914.305.623.023 1.078-.14 1.364-.487.285-.348.456-1.03.512-2.05l.26-4.68zM392.445 315.582l.766-.133c.022.62.114 1.045.278 1.273.163.23.39.344.68.344.212 0 .396-.06.55-.183.155-.126.262-.294.32-.505.06-.215.088-.555.088-1.02v-5.595h.85v5.535c0 .68-.066 1.205-.197 1.578-.13.373-.336.658-.62.853-.28.197-.61.295-.99.295-.562 0-.994-.205-1.296-.615-.297-.41-.44-1.02-.43-1.828zM378.002 329.146v-1.126l3.29-5.87c.233-.418.455-.78.666-1.09h-3.583v-1.08h4.6v1.08l-3.606 6.36-.39.645h4.1v1.08H378zM331.238 317.884l2.025-9.015.835.126-2.025 9.015-.835-.126zM322.147 314.332l5.28-8.075.767.34-1.174 7.65 4.145-6.34.718.317-5.28 8.076-.767-.34 1.177-7.657-4.15 6.346-.716-.318zM326.685 305.32l.6.495-4.55 3.75c-.794.65-1.474 1.126-2.043 1.425-.57.3-1.137.458-1.7.478-.56.018-1.06-.152-1.497-.51-.426-.35-.647-.74-.663-1.172-.016-.432.158-.893.523-1.383.367-.494.97-1.084 1.804-1.77l4.552-3.75.6.493-4.546 3.745c-.684.564-1.154 1.01-1.408 1.338-.248.326-.37.635-.368.925.003.292.135.544.394.756.442.362.93.477 1.466.346.536-.133 1.3-.606 2.288-1.42l4.547-3.745zM335.753 318.58l.31-9.163 2.21.05c.5.012.88.064 1.14.158.362.13.67.355.917.678.326.415.56.945.705 1.585.15.638.21 1.365.18 2.18-.022.698-.1 1.313-.232 1.85-.132.534-.293.976-.483 1.326-.19.346-.395.62-.615.818-.217.195-.477.34-.78.44-.303.096-.648.14-1.036.13l-2.317-.05zm.886-1.06l1.37.03c.422.01.756-.04 1-.147.245-.106.443-.26.594-.46.21-.284.38-.666.507-1.147.13-.485.208-1.073.23-1.764.033-.96-.053-1.697-.257-2.215-.202-.522-.458-.873-.767-1.056-.223-.13-.587-.2-1.092-.21l-1.35-.032-.235 7zM341.68 318.64l2.467-9.166h.915l2.628 9.167h-.968l-.75-2.775h-2.684l-.705 2.776h-.902zm1.854-3.763h2.177l-.67-2.538c-.204-.773-.356-1.406-.455-1.902-.082.587-.198 1.17-.346 1.75l-.706 2.69zM348.368 318.64v-9.166h2.212c.5 0 .88.044 1.144.13.368.123.68.342.94.66.34.407.592.93.76 1.567.17.635.253 1.36.253 2.177 0 .697-.057 1.314-.17 1.852-.115.537-.26.983-.44 1.337-.177.35-.373.628-.586.832-.21.198-.465.35-.765.455-.3.104-.642.156-1.03.156h-2.317zm.85-1.08h1.37c.424 0 .756-.056.995-.17.242-.112.435-.27.578-.474.203-.29.36-.674.47-1.157.114-.49.17-1.08.17-1.77 0-.96-.11-1.695-.332-2.21-.22-.515-.486-.86-.802-1.036-.227-.125-.594-.188-1.1-.188h-1.348v7.004zM366.55 329.146v-9.167h2.422c.426 0 .75.03.976.086.315.076.58.22.793.433.214.207.385.5.513.88.132.38.198.796.198 1.25 0 .78-.174 1.44-.52 1.983-.348.538-.976.806-1.884.806H367.4v3.726h-.85zm.85-4.81h1.66c.548 0 .938-.144 1.168-.436.23-.29.346-.702.346-1.232 0-.384-.068-.71-.205-.98-.136-.277-.314-.458-.536-.546-.143-.054-.407-.08-.793-.08h-1.64v3.275zM371.827 329.146l2.467-9.167h.915l2.627 9.166h-.968l-.75-2.776h-2.685l-.705 2.776h-.903zm1.853-3.764h2.177l-.67-2.54c-.204-.77-.357-1.403-.455-1.9-.083.588-.198 1.17-.347 1.75l-.705 2.69zM428.76 312.892l-4.287-7.838.677-.41 8.057 5.56-.716.434-2.404-1.705-1.987 1.2 1.328 2.356-.667.402zm-1.138-3.594l1.61-.973-2.188-1.566c-.666-.477-1.2-.874-1.604-1.194.33.468.634.948.91 1.44l1.272 2.292z"/>
        <path d="M419.16 331.78c.065 32.968 19.893 131.63-37.678 284.94-4.262 11.127 7.064 16.484 16.484 18.84 9.42 2.354 14.13-9.42 14.13-11.775s2.354 18.84 11.773 16.484c9.42-2.356 18.838-16.485 18.838-16.485s4.71 21.194 16.484 21.194 11.774-25.905 11.774-25.905c0 2.355 8.164 22.235 17.583 22.235 9.42 0 23.928-8.76 15.547-23.144-59.832-100.72-56.68-267.54-56.68-286.38 0-18.84 27.784-53.068 55.418-53.89l-10.675-16.755c-6.96 2.136-15.28 3.67-29.41 15.444s-22.397 24.59-22.397 24.59v-80.066h-23.548l2.355 73s-8.05-9.438-20.095-19.93c-11.4-9.935-31.972-9.2-44.637-7.12l-1.204 15.99c14.97 3.123 34.067-3.068 43.487 11.06 11.775 11.775 22.415 21.26 22.45 37.678z"
              fill="#682900" fill-rule="evenodd" stroke="#000" stroke-width="5.029"
              transform="matrix(.15 0 0 .15 312.13 202.03)"/>
        <path d="M310.55 312.21v-.832c0 1.976-.067 1.1.833-2.498.777-2.848 2.407-5.523 4.163-7.493 3.04-1.014 7.44.053 10.823-.833 2.277-3.268 5.827 4.267 5.827-.833 4.343-.31 4.4-4.558 5.828-6.66 4.054-.5 4.963-5.44 8.326-2.496 2.757 1.305.407-.833 4.997-.833 2.713.664 4.13 2.32 6.66.833.62-2.85 1.4-6.268 1.665-9.99-1.177-2.356-.832-7.184-.832-10.824 2.274-3.033 6.262 2.475 9.99 1.664 1.018-3.562 4.146-3.466 2.498-6.66-.308-4.007-1.08-6.503 0-10.823 1.314-3.703 3.228-3.606 6.66-5.827 1.093-3.277-.122-6.03.833-9.99 3.902-.116 3.833-1.133 4.164-4.996 1.26-2.66 2.858-5.356 4.995-7.493 1.967-2.382 4.302-2.147 5.827-5.828 1.308-3.27 1.31-4.75 4.995-5.828 2.696-1.27 4.833-1.41 6.66-3.33 1.733-3.057 3.175-5.487 5.83-9.16 2.63-1.77 15.236 1.666 19.148 1.666 2.118-2.67 5.397-6.86 7.493-8.326 3.587-1.916 4.96-2.497 9.99-2.497 4.288 1.27 6.082 2.795 10.824 1.666 1.932-2.706 3.816-3.965 8.325-2.498 3.433 2.22 5.347 2.124 6.66 5.828 1.947 4.615 1.51 6.192 6.662 6.66 5.18.186 5.71 1.443 9.158 4.163 5.248 2.25 4.995.98 4.995 5.827 3.72 0 4.052-.44 4.163 3.33 2.294.714 4.907 2.72 6.66 4.163 2.094 2.416 2.63 3.93 7.494 4.163 3.59-1.508 4.75-1.496 4.995-5.828 2.75-.982 3.21-3.635 4.162-6.66 2.108-2.885 3.474-3.33 8.325-3.33 4.28 1.772 4.14 3.567 3.33 7.493 2.665.55 3.765.24 4.164 3.33 1.408 2.346 1.04 5.15-.832 6.66 2.132 1.568 3.37 4.256 4.163 7.493-1.41 2.353-.546 5.81 0 8.327 2.913 1.456 4.416 2.81 8.326 4.163 1.983 1.68 6.2 3.44 9.99 4.163 4.482-.606 5.962-.568 9.992 1.665 2.084 2.993 2.235 6.77 4.163 8.326 2.176 1.843 5.82 2.65 7.494 4.995 2.778 2.03 3.594 4.28 7.493 4.994 1.47 2.228 4.634 5.896 5.828 8.326.94 2.694 1.36 7.413 2.498 10.823v11.656c-.158 4.303-.833 6.915-.833 11.655-.74 2.384-1.665 3.3-1.665 6.66-1.582 3.527-2.93 6.49-4.995 9.16-.94 4.234-2.473 6.222-4.163 9.99.052 4.37.832 6.304.832 10.823-1.81 2.69-3.888 4.647-7.494 6.66-2.724 3.188-4.368 4.427-4.995 9.16-1.565 2.704-1.442 2.497-4.994 2.497-4.2 0-7.814.375-11.656.832-3.378 0-4.64.356-6.66-1.665-3.99-1.804-7.346-1.91-11.657-.833-2.325-1.595-3.258-2.498-7.493-2.498-3.16.427-5.965.832-9.99.832-2.496-2.79-3.898-3.33-8.326-3.33-2.356 1.178-7.184.833-10.824.833-3.82-1.043-4.313-2.63-5.828-5.828-2.605-1.236-3.635-3.04-7.493-3.332-3.64 0-8.47.345-10.824-.832-2.723-.327-5.586-1.027-7.493-2.498-1.556-2.288-3.54-4.272-5.828-5.828-3.698 0-5.864.355-7.493-1.665-2.732-2.157-4.89-5.564-8.326-7.493-3.062-2.43-5.136-3.916-6.66-8.326 0-3.943.78-4.874-3.33-4.995-2.756 2.813-4.01 3.33-9.16 3.33-3.388 0-6.93-.017-9.157-.83-3.682-2.09-5.03-3.014-9.16-3.332-2.584 1.645-6.007 3.547-9.99 4.163-3.405 1.967-5.437 2.38-6.66 5.83-3.146 2.567-4.99 4.077-9.16 5.827-2.315 2.21-4.525 2.59-5.827 6.66-.792 3.367-1.665 5.37-1.665 9.99.59 4.37.36 6.238-1.665 9.992-1.74 2.485-4.757 3.7-7.493 5.827-4.116.494-4.548.186-7.493-1.665-2.933-.977-6.266-1.78-9.99-2.498-4.497-.866-6.018-1.96-8.327-4.162l8.326 4.162c-4.496-.866-6.017-1.96-8.326-4.162-5.064-3.583-6.063-5.398-11.656-5.828-5.198.06-7.43.318-8.325 4.995 2.96.788.608 2.553-.834 3.33-2.078 1.85-5.41 3.367-8.326 4.162-1.328 1.328-1.072-1.1-3.33-1.665-3.448-1.842-4.89-3.226-8.326-4.163-1.683-2.97-3.584-5.274-5.828-8.326-1.734-2.818-3.382-3.838-5.828-6.66-1.17-1.754-4.16-1.83-5.827-3.33-1-3.002-3.168-8.57-2.497-11.656 1.68-1.586 2.632-7.243 4.995-8.326 3.367-2.525 4.635-.223 9.16 0 4.258 0-5.867-6.71-1.666-6.66 3.92-.666 4.387-2.595 5.827-4.996h9.99z"
              fill="#009200" fill-rule="evenodd" stroke="#000" stroke-width="4.464"
              transform="matrix(.2 0 0 .15 285.64 190.05)"/>
        <path d="M382.98 253.1c.878.713 4.684 2.498 8.326 2.498 3.976.728 4.843 2.216 5.828 5.828 2.174 1.304 3.55 1.665 7.493 1.665 4.36.872 4.322 2.213 7.493 4.996M358.84 299.72c1.812.266 8.154.832 12.488.832 3.333-1.924 4.912-3.24 7.493-4.995 3.944 0 5.32.36 7.495 1.665 2.105.702 7.052.963 9.158 1.665 0 1.11-.278.833.832.833M391.31 286.4c.065-.025 3.252-1.946 5.828-2.498 2.835-1.976 5.946-2.94 9.158-4.163 2.117-.46 7.102-.45 8.326-.833M432.1 273.91v.833c0-2.327-.104-1.09 1.665 3.33.874 4.078 1.95 7.526 3.33 10.823 2.455 3.83 4.058 5.547 7.493 7.493 2.94 2.315 5.164 4.723 8.326 5.827 2.202 1.963 5.106 3.584 8.325 4.996 4.27 0 7.557.686 11.655.832h2.498M477.06 227.29v.833c0-2.247.055-1.105-.832 3.33-1.257 2.654-2.705 5.124-4.163 7.493-3.915 1.42-5.374 4.277-6.66 7.493-1.373 2.23-3.506 5.17-4.996 7.492-2.59 3.21-3.623 4.242-8.327 5.828M510.36 244.77c0 .244-1.537 2.434-2.498 4.996-1.653 2.436-2.075 6.86-2.497 9.99 0 3.618.02 7.557.832 9.99 2.516 3.122 3.158 4.765 7.493 6.662l-7.49-6.66c2.516 3.12 3.158 4.764 7.493 6.66M571.14 273.91v.833c0-2.61.217-1.006-4.163 2.497-3.252 3-5.572 5.416-8.325 7.493-4.732 1.255-5.455 1.182-9.99.833h-7.494M582.8 337.19h-.832c2.327 0 1.09-.103-3.33 1.665-3.693.923-7.88.982-10.824 0-2.966-1.68-5.955-3.055-8.326-5.828-1.24-.93-1.42-1.306-2.497-1.665M553.66 363v-.833c0 2.61.217 1.006-4.163-2.498-1.872-2.754-3.748-3.795-7.493-6.66-3.236-3.914-3.66-5.482-4.995-9.992-.357-3.323-1.456-6.734 0-9.158M492.05 348.84c1.81 0 8.56-.16 11.656-.833 2.418-1.643 5.094-2.746 8.326-4.162 1.764-4.36 3.27-5.81 3.33-10.824M441.26 323.87c-.652-1.483-3.544-7.436-4.995-10.823-.065-3.638-.833-6.285-.833-9.99M328.86 350.51c.84.126 4.375.403 6.66 0 3.635-1.86 7.022-2.205 10.823-2.498 1.933-1.16 5.086-1.03 6.66-2.497 3.475-2.316 3.938-4.645 5.83-8.326.166-1.674.664-2.49.83-4.164M383.81 338.02c-1.828 0-8.658.125-12.49-.833-1.966-1.273-3.362-3.364-4.994-4.995 1.11 0 .833.277.833-.833M393.8 313.88c.353-.106 4.485-1.665 7.493-1.665 1.79-1.158 4.76-2.237 7.493-3.33 1.48-.797 2.504-1.787 4.163-2.498M293.06 347.18h.833c-2.25 0-1.1.053 3.33-.833 5.18-.32 8.666-2.11 12.49-3.33 2.495-2.318 5.938-4.635 8.324-5.828 0-1.424-.34-1.275.833-1.666M504.54 301.39h.833c-2.328 0-1.09-.103 3.33 1.665 3.517 1.346 6.695 1.78 9.99 2.498 2.994.73 4.128 1.665 8.326 1.665 4.19 1.826 5.103 2.397 8.325 4.995 2.465 1.168 4.22 1.665 8.326 1.665 2.18-1.206 6.162-2.61 8.326-3.33 1.21-.908 1.293-.55 1.665-1.665"
              fill="none" stroke="#006800" stroke-width="4.05" transform="matrix(.2 0 0 .2 285.64 179.15)"/>
        <path d="M430.94 469.54v18.84c0 6.016-.557 11.276-2.355 16.483 0 5.875-.077 11.554-2.355 15.306-.4 5.617-1.177 10.478-1.177 16.483-1.705 5.116-1.504 12.044-2.355 17.662-.738 5.508-1.393 12.06-2.355 16.484-1.754 3.683-4.745 10.348-7.064 12.95-.29 5.085-1.533 7.588 0 11.775 1.64 4.922 1.176 10.85 1.176 16.484 1.537 4.61 1.178 10.003 1.178 15.305M436.82 493.08c.358 2.36 2.118 10.873 2.355 16.484v25.904c0 6.3.532 11.85 1.178 17.66-.084 6.944-1.346 9.54-4.71 15.308-.662 5.56-1.693 10.924-2.355 16.484-1.64 4.923-1.177 10.85-1.177 16.484 1.405 6.322 3.704 7.453 4.71 12.95 0 3.36.32 5.067 1.178 7.066M447.42 535.47c0 2.155-.14 12.532 1.178 16.484 0 6.023 1.106 10.544 1.177 16.484-.714 5.28-1.453 9.084-4.71 11.774-2.144 4.358-3.314 8.235-3.532 14.13 3.043 2.13 6.35 8.078 9.42 10.596 2.566 5.36 4.955 5.59 5.887 11.774 2.458 2.732-1.733 4.154 0 5.887 1.91 2.547.687 1.468 0 3.532"
              fill="none" stroke="#000" stroke-width="1pt" transform="matrix(.2 0 0 .2 288.36 178.53)"/>
        <path d="M93.248-106.57l15.982 25.596 30.16 1.046-14.17 26.642 14.17 26.642-30.16 1.045L93.248 0 77.262-25.6l-30.16-1.044 14.175-26.642-14.175-26.642 30.16-1.046z" fill="#ffd100" fill-rule="evenodd" stroke="#000"
              stroke-width="3.125"
              transform="matrix(.16 0 0 .15 369.58 198.54)"/>
        <path d="M93.248-106.57l15.982 25.596 30.16 1.046-14.17 26.642 14.17 26.642-30.16 1.045L93.248 0 77.262-25.6l-30.16-1.044 14.175-26.642-14.175-26.642 30.16-1.046z" fill="#ffd100" fill-rule="evenodd" stroke="#000"
              stroke-width="3.125"
              transform="matrix(.16 0 0 .15 349.7 198.54)"/>
        <path d="M93.248-106.57l15.982 25.596 30.16 1.046-14.17 26.642 14.17 26.642-30.16 1.045L93.248 0 77.262-25.6l-30.16-1.044 14.175-26.642-14.175-26.642 30.16-1.046z" fill="#ffd100" fill-rule="evenodd" stroke="#000"
              stroke-width="3.125"
              transform="matrix(.16 -.02 .02 .15 332.67 203.68)"/>
        <path d="M93.248-106.57l15.982 25.596 30.16 1.046-14.17 26.642 14.17 26.642-30.16 1.045L93.248 0 77.262-25.6l-30.16-1.044 14.175-26.642-14.175-26.642 30.16-1.046z" fill="#ffd100" fill-rule="evenodd" stroke="#000"
              stroke-width="3.125"
              transform="matrix(-.16 -.02 -.02 .15 418.3 203.19)"/>
        <path d="M93.248-106.57l15.982 25.596 30.16 1.046-14.17 26.642 14.17 26.642-30.16 1.045L93.248 0 77.262-25.6l-30.16-1.044 14.175-26.642-14.175-26.642 30.16-1.046z" fill="#ffd100" fill-rule="evenodd"
              stroke="#000" stroke-width="3.125"
              transform="matrix(-.15 -.05 -.05 .14 433.58 213.41)"/>
        <path d="M93.248-106.57l15.982 25.596 30.16 1.046-14.17 26.642 14.17 26.642-30.16 1.045L93.248 0 77.262-25.6l-30.16-1.044 14.175-26.642-14.175-26.642 30.16-1.046z" fill="#ffd100" fill-rule="evenodd" stroke="#000"
              stroke-width="3.125"
              transform="matrix(.15 -.05 .05 .14 316.85 212.43)"/>
    </g>
</svg>
