<?xml version="1.0" encoding="UTF-8" standalone="no"?>
<svg height="480" version="1" width="640" xmlns="http://www.w3.org/2000/svg">
    <defs>
        <clipPath id="a">
            <path d="M0 77.588h503.67v377.75H0z" fill-opacity=".67"/>
        </clipPath>
    </defs>
    <g clip-path="url(#a)" fill-rule="evenodd" transform="matrix(1.27 0 0 1.27 0 -98.59)">
        <path d="M159.45-60.328h375.7v327.84h-375.7z" fill="#fff41e"/>
        <path d="M207.32 258.67H512v253.07H207.32z" fill="#1f7848"/>
        <path d="M0 0h207.32v512H0z" fill="#e80006"/>
        <path d="M160.61 325.58l-55.86-39.888-55.587 40.28 20.674-65.457-55.485-40.42 68.645-.563 21.29-65.258 21.748 65.108 68.645.086-55.2 40.8 21.13 65.312z"/>
    </g>
</svg>
