<?xml version="1.0" encoding="UTF-8" standalone="no"?>
<svg fill="#28ff09" fill-opacity="14.118" height="480"
     id="canada" version="1.1" width="640" xmlns="http://www.w3.org/2000/svg" xmlns:cc="http://creativecommons.org/ns#"
     xmlns:dc="http://purl.org/dc/elements/1.1/" xmlns:rdf="http://www.w3.org/1999/02/22-rdf-syntax-ns#">
    <metadata id="metadata3572">
        <rdf:RDF>
            <cc:Work rdf:about="">
                <dc:format>image/svg+xml</dc:format>
                <dc:type rdf:resource="http://purl.org/dc/dcmitype/StillImage"/>
            </cc:Work>
        </rdf:RDF>
    </metadata>
    <g fill-opacity="1" fill-rule="evenodd" id="flag" transform="matrix(1.25 0 0 .93750 0 .0000011260)">
        <rect fill="#fff" height="512" id="rect576" width="171.16" x="170.3" y="2.8695e-7"/>
        <rect fill="#f00" height="512" id="rect575" width="170.3" x="0" y=".000045701"/>
        <rect fill="#f00" height="512" id="rect577" width="171.87" x="340.13" y=".000030219"/>
    </g>
</svg>
