<?xml version="1.0" encoding="UTF-8" standalone="no"?>
<svg height="480" id="svg378" version="1" width="640"
     x="0" xmlns="http://www.w3.org/2000/svg" xmlns:cc="http://creativecommons.org/ns#" xmlns:dc="http://purl.org/dc/elements/1.1/" xmlns:rdf="http://www.w3.org/1999/02/22-rdf-syntax-ns#"
     y="0">
    <metadata id="metadata3728">
        <rdf:RDF>
            <cc:Work rdf:about="">
                <dc:format>image/svg+xml</dc:format>
                <dc:type rdf:resource="http://purl.org/dc/dcmitype/StillImage"/>
            </cc:Work>
        </rdf:RDF>
    </metadata>
    <defs id="defs380">
        <clipPath clipPathUnits="userSpaceOnUse" id="clipPath4024">
            <rect fill-opacity="0.67" height="512" id="rect4026" width="682.67" x="-85.334" y=".0000024116"/>
        </clipPath>
    </defs>
    <g clip-path="url(#clipPath4024)" fill-rule="evenodd" id="flag"
       transform="matrix(.9375 0 0 .9375 80.001 -.0000022609)">
        <rect fill="#ec0015" height="512" id="rect149" stroke-width="1pt" width="768" x="-128" y=".0000024116"/>
        <path d="m349.59 381.05-89.576-66.893-89.137 67.55 33.152-109.77-88.973-67.784 110.08-0.94507 34.142-109.44 34.873 109.19 110.08 0.14401-88.517 68.423 33.884 109.53z"
              fill="#ff0"
              id="path205" stroke-width=".11287"/>
    </g>
</svg>
