<?xml version="1.0" encoding="UTF-8" standalone="no"?>
<svg height="512" width="512" xmlns="http://www.w3.org/2000/svg">
    <g clip-path="url(#a)" fill-rule="evenodd">
        <path d="M0 0h192v512H0z" fill="red"/>
        <path d="M192 340.06h576V512H192z"/>
        <path d="M192 172.7h576v169.65H192z" fill="#fff"/>
        <path d="M192 0h576v172.7H192z" fill="#00732f"/>
    </g>
</svg>
