<?xml version="1.0" encoding="UTF-8" standalone="no"?>
<svg height="512" width="512" xmlns="http://www.w3.org/2000/svg">
    <g fill-rule="evenodd" stroke-width="1pt">
        <path d="M0 0h511.993v511.984H0z" fill="#0000b4"/>
        <path d="M0 80.455h511.993v343.762H0z" fill="#fff"/>
        <path d="M0 168.222h511.993v168.222H0z" fill="#d90000"/>
    </g>
</svg>
