<?xml version="1.0" encoding="UTF-8" standalone="no"?>
<svg height="512" version="1" width="512" xmlns="http://www.w3.org/2000/svg">
    <defs>
        <clipPath id="a">
            <path d="M0 0h512v512H0z" fill-opacity=".67"/>
        </clipPath>
    </defs>
    <g clip-path="url(#a)" fill-rule="evenodd">
        <path d="M-32 0h768v512H-32z" fill="#0050f0"/>
        <path d="M-32 102.4h768v102.4H-32zM-32 307.2h768v102.4H-32z" fill="#fff"/>
        <path d="M-32 0l440.69 255.67L-32 511.01V0z" fill="#ed0000"/>
        <path d="M161.75 325.47l-47.447-35.432-47.214 35.78 17.56-58.144-47.13-35.904 58.306-.5 18.084-57.97 18.472 57.836 58.305.077-46.886 36.243 17.948 58.016z"
              fill="#fff"/>
    </g>
</svg>
