<?xml version="1.0" encoding="UTF-8" standalone="no"?>
<svg height="512" version="1" width="512" xmlns="http://www.w3.org/2000/svg">
    <g fill-rule="evenodd" stroke-width="1pt">
        <path d="M0 341.338h512.005v170.67H0z" fill="#fc0"/>
        <path d="M0 0h512.005v170.67H0z"/>
        <path d="M0 170.67h512.005v170.668H0z" fill="#f00"/>
    </g>
</svg>
