<svg height="512" version="1" width="512" xmlns="http://www.w3.org/2000/svg">
    <path d="M0 0h512v512H0z" fill="#0065bd"/>
    <path d="M0 0l5 3M0 3l5-3" stroke="#fff" stroke-width=".6" transform="scale(102.4 170.66667)"/>
</svg>
