<?xml version="1.0" encoding="UTF-8" standalone="no"?>
<svg height="512" id="svg378" version="1" width="512"
     x="0" xmlns="http://www.w3.org/2000/svg" xmlns:cc="http://creativecommons.org/ns#" xmlns:dc="http://purl.org/dc/elements/1.1/" xmlns:rdf="http://www.w3.org/1999/02/22-rdf-syntax-ns#"
     y="0">
    <metadata id="metadata3176">
        <rdf:RDF>
            <cc:Work rdf:about="">
                <dc:format>image/svg+xml</dc:format>
                <dc:type rdf:resource="http://purl.org/dc/dcmitype/StillImage"/>
            </cc:Work>
        </rdf:RDF>
    </metadata>
    <g fill-rule="evenodd" id="flag" stroke-width="1pt" transform="matrix(.48166 0 0 .72249 0 7.4219e-7)">
        <rect fill="#fff" height="708.66" id="rect171" width="1063" x="0" y="0"/>
        <rect fill="#00267f" height="708.66" id="rect403" width="354.33" x="0" y="0"/>
        <rect fill="#f31830" height="708.66" id="rect135" width="354.33" x="708.66" y="0"/>
    </g>
</svg>
