<?xml version="1.0" encoding="UTF-8" standalone="no"?>
<svg height="512" id="svg589" version="1.1" width="512"
     xmlns="http://www.w3.org/2000/svg" xmlns:cc="http://creativecommons.org/ns#" xmlns:dc="http://purl.org/dc/elements/1.1/" xmlns:rdf="http://www.w3.org/1999/02/22-rdf-syntax-ns#">
    <metadata id="metadata3065">
        <rdf:RDF>
            <cc:Work rdf:about="">
                <dc:format>image/svg+xml</dc:format>
                <dc:type rdf:resource="http://purl.org/dc/dcmitype/StillImage"/>
            </cc:Work>
        </rdf:RDF>
    </metadata>
    <defs id="defs591">
        <clipPath clipPathUnits="userSpaceOnUse" id="clipPath5088">
            <rect fill-opacity="0.67" height="490.73" id="rect5090" width="490.73" x="118.97" y="7.3057"/>
        </clipPath>
    </defs>
    <g clip-path="url(#clipPath5088)" id="flag" transform="matrix(1.0433 0 0 1.0433 -124.12 -7.6224)">
        <g fill-rule="evenodd" id="g558" stroke-width="1pt" transform="matrix(2.8042 0 0 2.8042 -595.4 -921.91)">
            <rect fill="#006aa7" height="70" id="rect552" width="87.5" x="213.36" y="331.47"/>
            <rect fill="#006aa7" height="70" id="rect553" width="87.5" x="213.36" y="436.36"/>
            <rect fill="#fecc00" height="35" id="rect554" width="87.5" x="213.36" y="401.43"/>
            <rect fill="#fecc00" height="175" id="rect556" width="35" x="300.5" y="331.37"/>
            <rect fill="#fecc00" height="35" id="rect557" width="157.5" x="334.39" y="401.44"/>
            <rect fill="#006aa7" height="70" id="rect558" width="157.5" x="335.47" y="436.37"/>
            <rect fill="#006aa7" height="70" id="rect559" width="157.5" x="335.47" y="331.47"/>
        </g>
    </g>
</svg>
