<?xml version="1.0" encoding="UTF-8" standalone="no"?>


<svg
        height="512"
        id="canada"
        inkscape:version="0.48.4 r9939"
        sodipodi:docname="sl.svg"
        version="1.1"
        width="512"
        xmlns="http://www.w3.org/2000/svg"
        xmlns:cc="http://creativecommons.org/ns#"
        xmlns:dc="http://purl.org/dc/elements/1.1/"
        xmlns:inkscape="http://www.inkscape.org/namespaces/inkscape"
        xmlns:rdf="http://www.w3.org/1999/02/22-rdf-syntax-ns#"
        xmlns:sodipodi="http://sodipodi.sourceforge.net/DTD/sodipodi-0.dtd">
    <defs
            id="defs10">
        <clipPath
                clipPathUnits="userSpaceOnUse"
                id="clipPath2989">
            <rect
                    height="512.00006"
                    id="rect2991"
                    rx="4.6274514"
                    ry="7.628283"
                    style="stroke:none"
                    width="384.00003"
                    x="0"
                    y="-5.2961117e-05"/>
        </clipPath>
    </defs>
    <sodipodi:namedview
            bordercolor="#666666"
            borderopacity="1"
            gridtolerance="10"
            guidetolerance="10"
            id="namedview8"
            inkscape:current-layer="canada"
            inkscape:cx="320"
            inkscape:cy="240"
            inkscape:pageopacity="0"
            inkscape:pageshadow="2"
            inkscape:window-height="800"
            inkscape:window-maximized="0"
            inkscape:window-width="1280"
            inkscape:window-x="0"
            inkscape:window-y="0"
            inkscape:zoom="0.49166667"
            objecttolerance="10"
            pagecolor="#ffffff"
            showgrid="false"/>
    <metadata
            id="metadata3128">
        <rdf:RDF>
            <cc:Work
                    rdf:about="">
                <dc:format>image/svg+xml</dc:format>
                <dc:type
                        rdf:resource="http://purl.org/dc/dcmitype/StillImage"/>
            </cc:Work>
        </rdf:RDF>
    </metadata>
    <g
            clip-path="url(#clipPath2989)"
            id="flag"
            style="fill-rule:evenodd"
            transform="matrix(1.3333332,0,0,0.99999993,0,5.2961113e-5)">
        <rect
                height="170.3"
                id="rect574"
                style="fill:#0000cd"
                width="512"
                x="0"
                y="341.70001"/>
        <rect
                height="170.3"
                id="rect573"
                style="fill:#ffffff"
                width="512"
                x="0"
                y="171.39999"/>
        <rect
                height="171.39999"
                id="rect572"
                style="fill:#00cd00"
                width="512"
                x="0"
                y="-1.9655999e-05"/>
    </g>
</svg>
