<?xml version="1.0" encoding="UTF-8" standalone="no"?>
<svg height="512" id="svg378" version="1" width="512"
     x="0" xmlns="http://www.w3.org/2000/svg" xmlns:cc="http://creativecommons.org/ns#" xmlns:dc="http://purl.org/dc/elements/1.1/" xmlns:rdf="http://www.w3.org/1999/02/22-rdf-syntax-ns#"
     y="0">
    <metadata id="metadata3728">
        <rdf:RDF>
            <cc:Work rdf:about="">
                <dc:format>image/svg+xml</dc:format>
                <dc:type rdf:resource="http://purl.org/dc/dcmitype/StillImage"/>
            </cc:Work>
        </rdf:RDF>
    </metadata>
    <defs id="defs380">
        <clipPath clipPathUnits="userSpaceOnUse" id="clipPath4278">
            <rect fill-opacity="0.67" height="708.66" id="rect4280" width="708.66" x="177.17" y="-.0000033379"/>
        </clipPath>
    </defs>
    <g clip-path="url(#clipPath4278)" fill-rule="evenodd" id="flag"
       transform="matrix(.72249 0 0 .72249 -128 .0000024116)">
        <rect fill="#ec0015" height="708.66" id="rect149" stroke-width="1pt" width="1063" x="0" y="0"/>
        <path d="m266.19 534.45-10.408-7.432-10.357 7.505 3.852-12.196-10.338-7.531 12.79-0.105 3.967-12.159 4.052 12.131 12.79 0.016-10.285 7.602 3.937 12.169z"
              fill="#ff0"
              id="path205" stroke-width=".11287" transform="matrix(11.912 0 0 12.458 -2509.8 -6130.7)"/>
    </g>
</svg>
